2020-10-08 6:39:55 - MOD: Modification Default

FILE: system/engine/action.php
REGEX: ~(require|include)(_once)?\(([^)]+)~
LINE: 69

FILE: system/engine/loader.php
REGEX: ~(require|include)(_once)?\(([^)]+)~
LINE: 77
LINE: 151
LINE: 168

FILE: system/library/config.php
REGEX: ~(require|include)(_once)?\(([^)]+)~
LINE: 59

FILE: system/library/language.php
REGEX: ~(require|include)(_once)?\(([^)]+)~
LINE: 67
LINE: 73

FILE: system/library/template/template.php
REGEX: ~(require|include)(_once)?\(([^)]+)~
LINE: 18

FILE: system/library/template/twig.php
CODE: $loader = new \Twig_Loader_Filesystem(DIR_TEMPLATE);
LINE: 19
----------------------------------------------------------------
MOD: Account Picture Modification

FILE: catalog/language/en-gb/account/register.php
CODE: $_['text_your_password']
LINE: 17

FILE: catalog/controller/account/register.php
CODE: $this->model_account_customer->addCustomer($this->request->post);
LINE: 29
CODE: $data['action'] = $this->url->link('account/register', '', true);
LINE: 122
CODE: if ((utf8_strlen($this->request->post['email']) > 96)
LINE: 262

FILE: catalog/view/theme/default/template/account/register.twig
CODE: <legend>{{ text_your_password }}</legend>
LINE: 298

FILE: catalog/controller/common/header.php
CODE: $this->load->language('common/header');
LINE: 95

FILE: catalog/view/theme/default/template/common/header.twig
CODE: <i class="fa fa-user"></i>
LINE: 46

FILE: catalog/view/theme/so-destino/template/common/header.twig
CODE: <i class="fa fa-user"></i>
NOT FOUND - OPERATIONS ABORTED!

FILE: catalog/view/theme/so-mobile/template/common/header.twig
CODE: <i class="fa fa-user"></i>
NOT FOUND - OPERATIONS ABORTED!
----------------------------------------------------------------
MOD: Opencart Webkul Developer Tools

FILE: system/engine/router.php
CODE: $this->registry = $registry;
LINE: 27
----------------------------------------------------------------
MOD: So ThemeConfig

FILE: catalog/controller/common/language.php
CODE: $data['languages'] = array();
LINE: 17

FILE: catalog/controller/common/cart.php
CODE: public function index()
LINE: 7
CODE: public function index()
LINE: 38

FILE: catalog/controller/common/footer.php
CODE: public function index()
LINE: 22

FILE: catalog/controller/common/maintenance.php
CODE: public function index()
LINE: 13

FILE: catalog/controller/common/home.php
CODE: $data['header'] = $this->load->controller('common/header');
LINE: 20
CODE: public function index()
LINE: 5

FILE: catalog/controller/product/search.php
CODE: public function index()
LINE: 19
CODE: $data['products'][] = array(
LINE: 266
CODE: $data['products'][] = array
LINE: 275

FILE: catalog/controller/product/special.php
CODE: public function index()
LINE: 19
CODE: $data['products'][] = array(
LINE: 156
CODE: $data['products'][] = array
LINE: 165

FILE: catalog/controller/product/manufacturer.php
CODE: public function index()
LINE: 19
CODE: $data['products'][] = array(
LINE: 229
CODE: $data['products'][] = array
LINE: 238

FILE: catalog/controller/product/category.php
CODE: public function index()
LINE: 19
CODE: $data['products'][] = array(
LINE: 238
CODE: $data['products'][] = array
LINE: 247
CODE: public function info()
LINE: 82

FILE: catalog/controller/product/product.php
CODE: public function index()
LINE: 20
CODE: $this->document->addScript('catalog/view/javascript/jquery/magnific/jquery.magnific-popup.min.js');
LINE: 281
CODE: $this->document->addStyle('catalog/view/javascript/jquery/magnific/magnific-popup.css');
LINE: 286
CODE: $data['description'] = html_entity_decode($product_info['description'], ENT_QUOTES, 'UTF-8');
LINE: 332
CODE: $data['options'] = array();
LINE: 412
CODE: $data['products'][] = array(
LINE: 527
CODE: $data['products'][] = array
LINE: 529
CODE: $data['images'] = array()
LINE: 368
CODE: while ($action instanceof Action)
LINE: 63

FILE: admin/controller/design/layout.php
CODE: public function index()
LINE: 5
CODE: // Modules layout
LINE: 362
CODE: design/layout_form
LINE: 406
----------------------------------------------------------------
MOD: So OnePage Checkout

FILE: catalog/controller/checkout/checkout.php
CODE: class ControllerCheckoutCheckout extends Controller {
LINE: 1130
CODE: $data['breadcrumbs'] = array();
LINE: 1180
CODE: $this->response->setOutput($this->load->view('checkout/checkout', $data));
LINE: 1545
CODE: $this->response->setOutput($this->load->view('checkout/checkout', $data));
LINE: 1545
----------------------------------------------------------------
MOD: So Menu - OpenCartWorks

FILE: admin/controller/common/column_left.php
CODE: $design = array();
LINE: 359
----------------------------------------------------------------
MOD: So Call for Price

FILE: catalog/language/en-gb/en-gb.php
CODE: <?php
LINE: 10

FILE: catalog/controller/extension/module/featured.php
CODE: $data['products'] = array();
LINE: 32
CODE: if ((float)$product_info['special']) {
LINE: 65
CODE: 'price' => $price,
NOT FOUND - OPERATIONS ABORTED!

FILE: catalog/controller/extension/module/bestseller.php
CODE: $data['products'] = array();
LINE: 32
CODE: if ((float)$product_info['special']) {
NOT FOUND - OPERATIONS ABORTED!

FILE: catalog/view/theme/default/template/extension/module/featured.twig
CODE: {{ product.price }}
LINE: 23
CODE: {% if product.tax %}
LINE: 35
CODE: <button type="button" onclick="cart.add('{{ product.product_id }}');"><i class="fa fa-shopping-cart"></i> <span class="hidden-xs hidden-sm hidden-md">{{ button_cart }}</span></button>
LINE: 44

FILE: catalog/view/theme/default/template/extension/module/bestseller.twig
CODE: {{ product.price }}
LINE: 23
CODE: {% if product.tax %}
LINE: 35
CODE: <button type="button" onclick="cart.add('{{ product.product_id }}');"><i class="fa fa-shopping-cart"></i> <span class="hidden-xs hidden-sm hidden-md">{{ button_cart }}</span></button>
LINE: 44

FILE: catalog/view/theme/default/template/extension/module/latest.twig
CODE: {{ product.price }}
LINE: 15
CODE: {% if product.tax %}
LINE: 25
CODE: <button type="button" onclick="cart.add('{{ product.product_id }}');"><i class="fa fa-shopping-cart"></i> <span class="hidden-xs hidden-sm hidden-md">{{ button_cart }}</span></button>
LINE: 30

FILE: catalog/view/theme/default/template/extension/module/special.twig
CODE: {{ product.price }}
LINE: 15
CODE: {% if product.tax %}
LINE: 25
CODE: <button type="button" onclick="cart.add('{{ product.product_id }}');"><i class="fa fa-shopping-cart"></i> <span class="hidden-xs hidden-sm hidden-md">{{ button_cart }}</span></button>
LINE: 30

FILE: catalog/controller/extension/module/latest.php
CODE: $data['products'] = array();
LINE: 32
CODE: if ((float)$result['special']) {
LINE: 65
CODE: 'price' => $price,
NOT FOUND - OPERATIONS ABORTED!

FILE: catalog/controller/extension/module/special.php
CODE: $data['products'] = array();
LINE: 32
CODE: if ((float)$result['special']) {
LINE: 65
CODE: 'price' => $price,
NOT FOUND - OPERATIONS ABORTED!
CODE: $this->load->model('tool/image');
LINE: 44
CODE: if ((float)$result['special']) {
LINE: 219
CODE: 'price' => $price,
NOT FOUND - OPERATIONS ABORTED!
CODE: $this->load->model('tool/image');
LINE: 42
LINE: 125
CODE: if ((float)$result['special']) {
LINE: 237
CODE: 'price' => $price,
NOT FOUND - OPERATIONS ABORTED!
CODE: $this->load->model('tool/image');
LINE: 44
CODE: if ((float)$result['special']) {
LINE: 247
CODE: 'price' => $price,
NOT FOUND - OPERATIONS ABORTED!
CODE: $this->load->model('tool/image');
LINE: 42
CODE: if ((float)$result['special']) {
LINE: 137
CODE: 'price' => $price,
NOT FOUND - OPERATIONS ABORTED!

FILE: catalog/view/theme/default/template/product/category.twig
CODE: {{ product.price }}
LINE: 137
CODE: {% if product.tax %}
LINE: 147
CODE: <button type="button" onclick="cart.add('{{ product.product_id }}', '{{ product.minimum }}');"><i class="fa fa-shopping-cart"></i> <span class="hidden-xs hidden-sm hidden-md">{{ button_cart }}</span></button>
LINE: 157

FILE: catalog/view/theme/so-destino/template/product/category.twig
CODE: {{ product.price }}
NOT FOUND - OPERATIONS ABORTED!

FILE: catalog/view/theme/so-mobile/template/product/category.twig
CODE: {{ product.price }}
NOT FOUND - OPERATIONS ABORTED!

FILE: catalog/view/theme/default/template/product/manufacturer_info.twig
CODE: {{ product.price }}
LINE: 79
CODE: {% if product.tax %}
LINE: 89
CODE: <button type="button" onclick="cart.add('{{ product.product_id }}', '{{ product.minimum }}');"><i class="fa fa-shopping-cart"></i> <span class="hidden-xs hidden-sm hidden-md">{{ button_cart }}</span></button>
LINE: 100

FILE: catalog/view/theme/so-destino/template/product/manufacturer_info.twig
CODE: {{ product.price }}
NOT FOUND - OPERATIONS ABORTED!

FILE: catalog/view/theme/so-mobile/template/product/manufacturer_info.twig
CODE: {{ product.price }}
NOT FOUND - OPERATIONS ABORTED!

FILE: catalog/view/theme/default/template/product/search.twig
CODE: {{ product.price }}
LINE: 123
CODE: {% if product.tax %}
LINE: 135
CODE: <button type="button" onclick="cart.add('{{ product.product_id }}', '{{ product.minimum }}');"><i class="fa fa-shopping-cart"></i> <span class="hidden-xs hidden-sm hidden-md">{{ button_cart }}</span></button>
LINE: 155

FILE: catalog/view/theme/so-destino/template/product/search.twig
CODE: {{ product.price }}
NOT FOUND - OPERATIONS ABORTED!

FILE: catalog/view/theme/so-mobile/template/product/search.twig
CODE: {{ product.price }}
NOT FOUND - OPERATIONS ABORTED!

FILE: catalog/view/theme/default/template/product/special.twig
CODE: {{ product.price }}
LINE: 79
CODE: {% if product.tax %}
LINE: 89
CODE: <button type="button" onclick="cart.add('{{ product.product_id }}', '{{ product.minimum }}');"><i class="fa fa-shopping-cart"></i> <span class="hidden-xs hidden-sm hidden-md">{{ button_cart }}</span></button>
LINE: 101

FILE: catalog/view/theme/so-destino/template/product/special.twig
CODE: {{ product.price }}
NOT FOUND - OPERATIONS ABORTED!

FILE: catalog/view/theme/so-mobile/template/product/special.twig
CODE: {{ product.price }}
NOT FOUND - OPERATIONS ABORTED!
CODE: $this->load->model('catalog/category');
LINE: 49
CODE: if ((float)$product_info['special']) {
LINE: 350
LINE: 417
CODE: if ((float)$result['special']) {
LINE: 555
CODE: 'price' => $price,
NOT FOUND - OPERATIONS ABORTED!

FILE: catalog/view/theme/default/template/product/product.twig
CODE: {{ price }}
LINE: 137
CODE: {% if tax %}
LINE: 153
CODE: {{ price }}
LINE: 143
CODE: {% if product.tax %}
LINE: 342

FILE: catalog/view/theme/so-destino/template/product/product.twig
CODE: {{ price }}
LINE: 259
CODE: {% if tax %}
LINE: 290
CODE: {{ price }}
LINE: 265
CODE: {% if product.tax %}
NOT FOUND - OPERATIONS ABORTED!

FILE: catalog/view/theme/so-mobile/template/product/product.twig
CODE: {{ price }}
LINE: 82
CODE: {% if tax %}
LINE: 96
CODE: {{ price }}
LINE: 88
CODE: {% if product.tax %}
NOT FOUND - OPERATIONS ABORTED!
CODE: <input type="button" value="{{ button_cart }}" data-loading-text="{{ text_loading }}" id="button-cart" class="btn btn-mega btn-lg">
NOT FOUND - OPERATIONS ABORTED!
CODE: <input type="button" value="{{ button_cart }}" data-loading-text="{{ text_loading }}" id="button-cart" class="btn btn-mega btn-lg">
LINE: 655
CODE: <button class="addToCart btn-button" type="button" title="{{ button_cart}}" onclick="cart.add('{{ product.product_id }}', '{{ product.minimum }}');"><i class="fa fa-shopping-basket"></i><span>{{ button_cart }}</span></button>
NOT FOUND - OPERATIONS ABORTED!
CODE: <input type="button" value="{{ button_cart }}" data-loading-text="{{ text_loading }}" id="button-cart" class="btn btn-mega btn-lg">
NOT FOUND - OPERATIONS ABORTED!

FILE: catalog/controller/account/wishlist.php
CODE: $this->load->model('tool/image');
LINE: 33
CODE: if ((float)$product_info['special']) {
LINE: 105
CODE: 'price' => $price,
NOT FOUND - OPERATIONS ABORTED!

FILE: catalog/view/theme/default/template/account/wishlist.twig
CODE: {{ product.price }}
LINE: 45
CODE: <button type="button" onclick="cart.add('{{ product.product_id }}');" data-toggle="tooltip" title="{{ button_cart }}" class="btn btn-primary"><i class="fa fa-shopping-cart"></i></button>
LINE: 54

FILE: catalog/controller/product/compare.php
CODE: $this->load->model('tool/image');
LINE: 25
CODE: if ((float)$product_info['special']) {
LINE: 93
CODE: 'price' => $price,
NOT FOUND - OPERATIONS ABORTED!

FILE: catalog/view/theme/default/template/product/compare.twig
CODE: {{ product.price }}
LINE: 45
CODE: <input type="button" value="{{ button_cart }}" class="btn btn-primary btn-block" onclick="cart.add('{{ product.product_id }}', '{{ product.minimum }}');" />
LINE: 124

FILE: catalog/view/theme/so-destino/template/product/compare.twig
CODE: {{ product.price }}
LINE: 48
CODE: <input type="button" value="{{ button_cart }}" class="btn btn-primary btn-block" onclick="cart.add('{{ product.product_id }}', '{{ product.minimum }}');" />
LINE: 129

FILE: catalog/view/theme/so-mobile/template/product/compare.twig
CODE: {{ product.price }}
LINE: 49
CODE: <input type="button" value="{{ button_cart }}" class="btn btn-primary btn-block" onclick="cart.add('{{ product.product_id }}', '{{ product.minimum }}');" />
LINE: 126

FILE: catalog/controller/extension/module/so_filter_shop_by.php
CODE: $this->load->model('extension/module/so_filter_shop_by');
LINE: 26
LINE: 287
CODE: if ((float)$result['special']) {
LINE: 362
CODE: 'price' => $price,
NOT FOUND - OPERATIONS ABORTED!

FILE: catalog/view/theme/default/template/soconfig/listing.twig
CODE: {{ product.price }}
LINE: 192
CODE: <button class="addToCart btn-button" type="button" title="{{ button_cart }}" onclick="cart.add('{{ product.product_id }}', '{{ product.minimum }}');"><i class="fa fa-shopping-basket"></i><span>{{ button_cart }}</span></button>
NOT FOUND - OPERATIONS ABORTED!

FILE: catalog/view/theme/so-destino/template/soconfig/listing.twig
CODE: {{ product.price }}
LINE: 192
CODE: <button class="addToCart btn-button" type="button" title="{{ button_cart }}" onclick="cart.add('{{ product.product_id }}', '{{ product.minimum }}');"><i class="fa fa-shopping-basket"></i><span>{{ button_cart }}</span></button>
NOT FOUND - OPERATIONS ABORTED!

FILE: catalog/view/theme/so-mobile/template/soconfig/listing.twig
CODE: {{ product.price }}
LINE: 116
CODE: <button class="addToCart btn-button" type="button" title="{{ button_cart }}" onclick="cart.add('{{ product.product_id }}', '{{ product.minimum }}');"><i class="fa fa-shopping-basket"></i><span>{{ button_cart }}</span></button>
NOT FOUND - OPERATIONS ABORTED!

FILE: catalog/controller/extension/module/so_listing_tabs.php
CODE: $this->load->model('extension/module/so_listing_tabs');
LINE: 30
CODE: if ((float)$product_info['special']) {
LINE: 670
CODE: 'price' => $price,
NOT FOUND - OPERATIONS ABORTED!

FILE: catalog/view/theme/so-destino/template/extension/module/so_listing_tabs/category/default_items.twig
CODE: {{ product.price }}
LINE: 102
CODE: <button type="button" class="addToCart btn-button" title="{{ objlang.get('button_cart') }}" onclick="cart.add('{{ product.product_id }} ');"><i class="fa fa-shopping-basket"></i><span>{{ objlang.get('button_cart') }} </span></button>
NOT FOUND - OPERATIONS ABORTED!

FILE: catalog/view/theme/so-destino/template/extension/module/so_listing_tabs/default/default_items.twig
CODE: {{ product.price }}
LINE: 85
CODE: <button type="button" class="addToCart btn-button" title="{{ objlang.get('button_cart') }}" onclick="cart.add('{{ product.product_id }} ');"><i class="fa fa-shopping-basket"></i><span>{{ objlang.get('button_cart') }} </span></button>
NOT FOUND - OPERATIONS ABORTED!

FILE: catalog/view/theme/so-destino/template/extension/module/so_listing_tabs/default2/default_items.twig
CODE: {{ product.price }}
LINE: 87
CODE: <button type="button" class="addToCart btn-button" title="{{ objlang.get('button_cart') }}" onclick="cart.add('{{ product.product_id }} ');"><i class="fa fa-shopping-basket"></i><span>{{ objlang.get('button_cart') }} </span></button>
NOT FOUND - OPERATIONS ABORTED!

FILE: catalog/view/theme/so-destino/template/extension/module/so_listing_tabs/default3/default_items.twig
CODE: {{ product.price }}
LINE: 72
CODE: <button type="button" class="addToCart btn-button" title="{{ objlang.get('button_cart') }}" onclick="cart.add('{{ product.product_id }} ');"><i class="fa fa-shopping-basket"></i><span>{{ objlang.get('button_cart') }} </span></button>
NOT FOUND - OPERATIONS ABORTED!

FILE: catalog/view/theme/so-mobile/template/extension/module/so_listing_tabs/category/default_items.twig
CODE: {{ product.price }}
LINE: 74
CODE: <button type="button" class="addToCart btn-button" title="{{ objlang.get('button_cart') }}" onclick="cart.add('{{ product.product_id }} ');"><i class="fa fa-shopping-basket"></i><span>{{ objlang.get('button_cart') }} </span></button>
NOT FOUND - OPERATIONS ABORTED!

FILE: catalog/view/theme/so-mobile/template/extension/module/so_listing_tabs/default/default_items.twig
CODE: {{ product.price }}
LINE: 87
CODE: <button type="button" class="addToCart btn-button" title="{{ objlang.get('button_cart') }}" onclick="cart.add('{{ product.product_id }} ');"><i class="fa fa-shopping-basket"></i><span>{{ objlang.get('button_cart') }} </span></button>
NOT FOUND - OPERATIONS ABORTED!

FILE: catalog/view/theme/so-mobile/template/extension/module/so_listing_tabs/default2/default_items.twig
CODE: {{ product.price }}
LINE: 85
CODE: <button type="button" class="addToCart btn-button" title="{{ objlang.get('button_cart') }}" onclick="cart.add('{{ product.product_id }} ');"><i class="fa fa-shopping-basket"></i><span>{{ objlang.get('button_cart') }} </span></button>
NOT FOUND - OPERATIONS ABORTED!

FILE: catalog/view/theme/so-mobile/template/extension/module/so_listing_tabs/default3/default_items.twig
CODE: {{ product.price }}
LINE: 71
CODE: <button type="button" class="addToCart btn-button" title="{{ objlang.get('button_cart') }}" onclick="cart.add('{{ product.product_id }} ');"><i class="fa fa-shopping-basket"></i><span>{{ objlang.get('button_cart') }} </span></button>
NOT FOUND - OPERATIONS ABORTED!
----------------------------------------------------------------
MOD: So Color Swatch

FILE: admin/controller/catalog/product.php
CODE: $data['layouts'] = $this->model_design_layout->getLayouts();
LINE: 1276
CODE: $data['layouts'] = $this->model_design_layout->getLayouts();
LINE: 1280
CODE: $data['product_images']
LINE: 1182
LINE: 1200
CODE: 'sort_order' => $product_image['sort_order']
LINE: 1203

FILE: admin/view/template/catalog/product_form.twig
CODE: <td class="text-right">{{ entry_sort_order }}</td>
LINE: 1058
CODE: <td class="text-right"><input type="text" name="product_image[{{ image_row }}][sort_order]" value="{{ product_image.sort_order }}" placeholder="{{ entry_sort_order }}" class="form-control" /></td>
NOT FOUND - OPERATIONS ABORTED!

FILE: admin/model/catalog/product.php
CODE: $this->db->query("INSERT INTO " . DB_PREFIX . "product_image SET product_id = '" . (int)$product_id . "', image = '" . $this->db->escape($product_image['image']) . "', sort_order = '" . (int)$product_image['sort_order'] . "'");
LINE: 78
LINE: 230
CODE: public function getTotalProductsByTaxClassId($tax_class_id) {
LINE: 706

FILE: admin/language/en-gb/catalog/product.php
CODE: // Entry
LINE: 32
CODE: $data['products'][] = array(
LINE: 320
CODE: $data['products'][] = array
LINE: 321
CODE: $data['products'][] = array(
LINE: 348
CODE: $data['products'][] = array
LINE: 349
CODE: $data['products'][] = array(
LINE: 338
CODE: $data['products'][] = array
LINE: 339
CODE: $data['products'][] = array(
LINE: 238
CODE: $data['products'][] = array
LINE: 239
CODE: <img data-sizes="auto" src="data:image/gif;base64,R0lGODlhAQABAAAAACH5BAEKAAEALAAAAAABAAEAAAICTAEAOw==" data-src="{{ product.thumb }}" title="{{ product.name }} " class="lazyload img-responsive" />
NOT FOUND - OPERATIONS ABORTED!
CODE: <img data-sizes="auto" src="data:image/gif;base64,R0lGODlhAQABAAAAACH5BAEKAAEALAAAAAABAAEAAAICTAEAOw==" data-src="{{ product.thumb }}" title="{{ product.name }} " class="lazyload img-responsive" />
NOT FOUND - OPERATIONS ABORTED!
CODE: <img data-sizes="auto" src="data:image/gif;base64,R0lGODlhAQABAAAAACH5BAEKAAEALAAAAAABAAEAAAICTAEAOw==" data-src="{{ product.thumb }}" title="{{ product.name }} " class="lazyload img-responsive" />
NOT FOUND - OPERATIONS ABORTED!
CODE: $data['products'] = array();
LINE: 598
CODE: <h3>{{ text_option }}</h3>
LINE: 306
CODE: var element = $('#input-option' + i.replace('_', '-'));
LINE: 545
CODE: <h3>{{ text_option }}</h3>
LINE: 594
CODE: var element = $('#input-option' + i.replace('_', '-'));
LINE: 1649
CODE: <h3>{{ text_option }}</h3>
NOT FOUND - OPERATIONS ABORTED!
CODE: $data['products'][] = array(
LINE: 142
CODE: 'product_id' => $product_info['product_id'],
NOT FOUND - OPERATIONS ABORTED!
CODE: $data['products'][] = array(
LINE: 127
CODE: $data['products'][] = array
LINE: 128
CODE: $data['products'][] = array(
LINE: 142
CODE: $data['products'][] = array
LINE: 143
CODE: $data['products'][] = array(
LINE: 142
CODE: $data['products'][] = array
LINE: 143
CODE: <img src="{{ product.thumb }}" alt="{{ product.name }}" title="{{ product.name }}" class="img-responsive" />
LINE: 5
CODE: <h4><a href="{{ product.href }}">{{ product.name }}</a></h4>
LINE: 63
CODE: <img src="{{ product.thumb }}" alt="{{ product.name }}" title="{{ product.name }}" class="img-responsive" />
LINE: 5
CODE: <h4><a href="{{ product.href }}">{{ product.name }}</a></h4>
LINE: 63
CODE: <img src="{{ product.thumb }}" alt="{{ product.name }}" title="{{ product.name }}" class="img-responsive" />
LINE: 4
CODE: <h4><a href="{{ product.href }}">{{ product.name }}</a></h4>
LINE: 62
CODE: <img src="{{ product.thumb }}" alt="{{ product.name }}" title="{{ product.name }}" class="img-responsive" />
LINE: 4
CODE: <h4><a href="{{ product.href }}">{{ product.name }}</a></h4>
LINE: 62
----------------------------------------------------------------
MOD: So Mobile
CODE: $this->response->setOutput($this->load->view('common/home', $data));
LINE: 25
CODE: return $this->load->view('common/header', $data)
LINE: 186
CODE: return $this->load->view('common/footer', $data);
LINE: 86
CODE: $data['heading_title'] = $category_info['name']
LINE: 132
CODE: $this->load->model('tool/image')
LINE: 27
CODE: $this->load->model('tool/image')
LINE: 25
CODE: $this->load->model('tool/image')
LINE: 25
LINE: 109
----------------------------------------------------------------
MOD: So Placeholder
CODE: $image = $this->model_tool_image->resize('placeholder.png', $this->config->get('theme_' . $this->config->get('config_theme') . '_image_product_width'), $this->config->get('theme_' . $this->config->get('config_theme') . '_image_product_height'));
LINE: 204
CODE: // Set the last category breadcrumb
LINE: 144
CODE: $data['thumb'] = '';
LINE: 153
CODE: $data['categories'][]
LINE: 193
CODE: $data['categories'][]
LINE: 194
----------------------------------------------------------------
MOD: Modification Manager

FILE: admin/language/en-gb/marketplace/modification.php
CODE: <?php
LINE: 25

FILE: admin/controller/marketplace/modification.php
CODE: public function index() {
LINE: 13
CODE: $this->model_setting_modification
LINE: 34
LINE: 133
LINE: 531
LINE: 565
LINE: 683
LINE: 687
CODE: $this->model_setting_modification->
LINE: 34
LINE: 133
LINE: 531
LINE: 565
LINE: 683
LINE: 687
CODE: $sort = 'name';
LINE: 627
CODE: $order = 'ASC';
LINE: 633
CODE: $handle = fopen(DIR_LOGS . 'ocmod.log', 'w+');
LINE: 600
CODE: $maintenance = $this->config->get('config_maintenance');
LINE: 76
CODE: $data['breadcrumbs'] = array();
LINE: 696
CODE: $data['sort_name'] =
LINE: 791
CODE: $filter_data = array(
LINE: 717
CODE: $data['modifications'][] = array(
LINE: 736
CODE: $pagination = new Pagination();
LINE: 824
CODE: $data['clear_log'] =
LINE: 722
CODE: $this->load->view('marketplace/modification'
LINE: 884
CODE: $this->response->redirect($this->url->link(!empty($data['redirect']) ? $data['redirect'] : 'marketplace/modification', 'user_token=' . $this->session->data['user_token'] . $url, true));
LINE: 456
CODE: if ($this->validate()) {
LINE: 91
CODE: $log[] = 'MOD:
LINE: 188
CODE: $operations = $file->getElementsByTagName('operation');
LINE: 203
CODE: $files = glob($path, GLOB_BRACE);
LINE: 232
CODE: if (!$status) {
LINE: 420
CODE: $ocmod->write(implode("\n", $log));
LINE: 459
CODE: protected function validate(
LINE: 1452
----------------------------------------------------------------
MOD: So Product Feature
CODE: // Entry
LINE: 36
CODE: $this->db->query("INSERT INTO " . DB_PREFIX . "product_description SET product_id = '" . (int)$product_id . "', language_id = '" . (int)$language_id . "', name = '" . $this->db->escape($value['name']) . "', description = '" . $this->db->escape($value['description']) . "', tag = '" . $this->db->escape($value['tag']) . "', meta_title = '" . $this->db->escape($value['meta_title']) . "', meta_description = '" . $this->db->escape($value['meta_description']) . "', meta_keyword = '" . $this->db->escape($value['meta_keyword']) . "'");
LINE: 16
LINE: 162
CODE: public function getTotalProductsByTaxClassId($tax_class_id) {
LINE: 727
CODE: $query = $this->db->query("SELECT * FROM " . DB_PREFIX . "product_description WHERE product_id = '" . (int)$product_id . "'");
LINE: 484
CODE: 'tag' => $result['tag']
NOT FOUND - OPERATIONS ABORTED!
CODE: $data['products'][] = array
LINE: 393
CODE: $data['products'][] = array
LINE: 395
CODE: $data['layouts'] = $this->model_design_layout->getLayouts();
LINE: 1305

FILE: admin/view/template/catalog/product_list.twig
CODE: <td class="text-left">{{ product.name }}</td>
LINE: 138
CODE: <li class="active"><a href="#tab-general" data-toggle="tab">{{ tab_general }}</a></li>
LINE: 28
CODE: <div class="tab-pane" id="tab-data">
LINE: 155
CODE: $data['options'] = array();
LINE: 464
----------------------------------------------------------------
MOD: Bug Fixing OC-3.x

FILE: admin/controller/design/theme.php
CODE: if ($theme == 'theme_default')
LINE: 108
LINE: 174
LINE: 216
LINE: 265
CODE: {default,' . $theme . '}
LINE: 122

FILE: catalog/controller/information/contact.php
CODE: $this->load->language('information/contact')
LINE: 8
LINE: 175

FILE: catalog/language/en-gb/common/cart.php
CODE: $_['text_empty']
LINE: 3

FILE: catalog/view/theme/default/template/common/cart.twig
CODE: text_empty
LINE: 46

FILE: catalog/view/theme/so-destino/template/common/cart.twig
CODE: text_empty
LINE: 54
----------------------------------------------------------------
MOD: So Countdown Popup
CODE: $data['scripts'] = $this->document->getScripts('footer');
LINE: 81

FILE: catalog/view/theme/default/template/common/footer.twig
CODE: </footer>
LINE: 46

FILE: catalog/view/theme/so-destino/template/common/footer.twig
CODE: </footer>
NOT FOUND - OPERATIONS ABORTED!

FILE: catalog/view/theme/so-mobile/template/common/footer.twig
CODE: </footer>
NOT FOUND - OPERATIONS ABORTED!
----------------------------------------------------------------
MOD: So Tools
CODE: $this->load->model('catalog/manufacturer');
LINE: 122
----------------------------------------------------------------
MOD: Simple Blog
CODE: $report = array();
LINE: 880

FILE: admin/language/en-gb/common/column_left.php
CODE: $_['text_other_status']
LINE: 100

FILE: catalog/controller/startup/seo_url.php
CODE: if ($query->row['query'] && $url[0] != 'information_id' && $url[0] != 'manufacturer_id' && $url[0] != 'category_id' && $url[0] != 'product_id') {
LINE: 43
CODE: if ($url[0] == 'category_id') {
LINE: 38
CODE: $this->request->get['route'] = 'error/not_found'
LINE: 60
CODE: $this->request->get['route'] = 'information/information';
LINE: 83
CODE: } elseif ($key == 'path') {
LINE: 124
CODE: $categories = $this->model_catalog_category->getCategories(0);
LINE: 130
----------------------------------------------------------------
MOD: So Social Login

FILE: catalog/view/theme/default/template/account/login.twig
CODE: <div class="well">
LINE: 24
LINE: 31
CODE: <input type="submit" value="{{ button_login }}" class="btn btn-primary" />
LINE: 47
CODE: </form>
LINE: 118
CODE: {{ footer }}
LINE: 141

FILE: catalog/view/theme/so-destino/template/account/login.twig
CODE: <div class="well">
LINE: 31
CODE: <input type="submit" value="{{ button_login }}" class="btn btn-primary" />
LINE: 45
CODE: </form>
LINE: 116
CODE: {{ footer }}
LINE: 139

FILE: catalog/controller/account/login.php
CODE: $data['header'] = $this->load->controller('common/header');
LINE: 260
CODE: $data['title'] = $this->document->getTitle();
LINE: 281
CODE: </header>
LINE: 195
CODE: </header>
NOT FOUND - OPERATIONS ABORTED!
CODE: </header>
NOT FOUND - OPERATIONS ABORTED!
----------------------------------------------------------------
MOD: So Google Amp (Accelerated Mobile Pages)

FILE: catalog/language/en-gb/product/product.php
CODE: // Entry
LINE: 36
CODE: $this->document->addLink($this->url->link('product/product', 'product_id=' . $this->request->get['product_id']), 'canonical');
LINE: 325
CODE: $data['pagination'] = $pagination->render();
LINE: 489
CODE: if ($url[0] == 'product_id') {
LINE: 35
CODE: foreach ($parts as $part) {
LINE: 21
CODE: if (!isset($this->request->get['route'])) {
LINE: 98
CODE: if (isset($this->request->get['product_id'])) {
LINE: 99
CODE: ($data['route'] == 'information/information' && $key == 'information_id')
LINE: 141
CODE: $url .= '/' . $query->row['keyword'];
LINE: 147
LINE: 156
LINE: 163
LINE: 170
LINE: 193
----------------------------------------------------------------
MOD: So Tools
CODE: $this->load->model('catalog/manufacturer');
LINE: 122
CODE: public function index() {
LINE: 6
CODE: public function add() {
LINE: 28

FILE: catalog/model/design/layout.php
CODE: $query = $this->db->query("SELECT * FROM " . DB_PREFIX . "layout_module WHERE layout_id = '" . (int)$layout_id . "' AND position = '" . $this->db->escape($position) . "' ORDER BY sort_order");
LINE: 13
----------------------------------------------------------------
