{
  "type": "service_account",
  "project_id": "tribal-incline-278105",
  "private_key_id": "fe82019f2a3a37fbf05e7be41127378b1554ad88",
  "private_key": "-----BEGIN PRIVATE KEY-----\nMIIEvAIBADANBgkqhkiG9w0BAQEFAASCBKYwggSiAgEAAoIBAQDp9ONZghE4IA1j\nDvT61cdtLfDTJSBTEpbxGeVgfK4J7+bkCg2UayLu8Ue48NKYofpbztzX9t+QNecG\nA5pRPKzG1D4CKodOKjSGDzngjvAB9nBcBcj4b2vnZAm/+ecBsE1SvvKgUB4XbSm3\nrxzkBkbZPhCDr6w9691ih1B74YfHeQBIXkOV3Q/GniM1RGrXp/1rTT1T+e+J28yP\nMswtfL6ZXcLHY8zpwrg8tLMvHUB2kj6PfGZOWwHQPtGgkhlRoQtLOmfeERChvehA\nO3tG5F+RwvTBJ9qvusQuY8hF38QxS8FxvO9HfDKuNydEP+SeYaZSmWQ1tMQwh1JK\nrkgl2UXjAgMBAAECggEAGr7IDr9zwHrJjP10vAgcWDrcQQcJfvWtE7rmIfWe37vx\nJTiQ/NqSj8Y9cML3EEPUHxKy5G1weUfwNRvMVGUfS0uQGydJeIISpxCuiSFOBqtp\nhNuUcfIq37Tr+GpVIjhJXqA9lF4UUpFEJ595KggdqVATCzrV8e44zL6zULYjk4Xl\nsREJHxi60dv9/oL28Ks9woHltQLZgRKw5PpinPrQhy/vvWh5BXWMbGbTHCLm34YC\npgz6S81YOHFE0twqTJeV2uKEJkJv9OlaP+CbXwJGsq1hyQXzd63mu3j5vmXVtidO\nAmk4jwKHLS3wuCt7IspPyLyHtM9oqypnD9ZNf89Z4QKBgQD3jde5ZW2RqMsPiBwP\nwT9FlppgsYfhr35t3JhmmjaRKg98mB2VB1C/eLI9jbo77yHiSQzQmrvNElJ/XGu1\nVlwCqevakdCGj0ZL/tHG9wDT9R8Fl5ft2D75uYEFYwEKqhnPwcRPS5bZm6z4phSV\nqFc2RwWSPp/VRrZ0ZhOmU8Q+twKBgQDx8Eivon/UIskasrqNiN8iynWfTYx74eAa\nx4olW5jRG6RrLcN4VMIAWmHg0oXEnfX1WopcrgfDyKt9/8bP7qF7Wy2CM0nB/wOZ\nNOCkD3Tp40z9kXKFut7v/xQPlakkjFqrPS/g5g712naSdUuWo9jfMqgrlLP6K3Qf\nSSc6sUAGNQKBgDGnIKLOBkkV+wy1dzNtxlwV1gcY9LE+uvQcL/E8cz9wmUSbWiuf\nGQIemlmgSL9munwhvNFGh+6dAzEKf4wSs0fRfz4KyzGCIU5y4O6wclkRLFS50D5j\nhlYecBN9hSL3dU/nhJGHDs283NfOsAhIiJ2ZZzOrHfHwSf5UzxIocQ9HAoGAQi8B\nM0q4vUdmzC7oaZ9vqwzHcHS+YYVA0RKU7/NGsq1lJQy31EsbZw1SiTYN8eNkTWIf\nR4s0BJL4ltdJg8g71Ir0wBFXtAIW8epNKZQw32qWvSb0tTCRnAWjbz/5rU3X39A1\nMMi+fvLsTNRZgTQBN82bw5BCS8VnVsekO6IRaaECgYAttz0SWwCJlt2haAM0ga9Q\ns74/+ysoYtrJOfLs8HRpXBIqs/Q3XjYMLJASMc2/4NIF75rrBBWuWQ1jSb+Nim2I\nrLkC5rv4afbDnffXRSn9yARj+LHWVtWNXzwYS91Vhqj6ARq6iDnnPkdYK8x2c1Ad\n4yaFK97L+1kzM5yBQ/41ag==\n-----END PRIVATE KEY-----\n",
  "client_email": "pvk-storage@tribal-incline-278105.iam.gserviceaccount.com",
  "client_id": "105512414991387743228",
  "auth_uri": "https://accounts.google.com/o/oauth2/auth",
  "token_uri": "https://oauth2.googleapis.com/token",
  "auth_provider_x509_cert_url": "https://www.googleapis.com/oauth2/v1/certs",
  "client_x509_cert_url": "https://www.googleapis.com/robot/v1/metadata/x509/pvk-storage%40tribal-incline-278105.iam.gserviceaccount.com"
}
